Helper function to compile "wide" group metadata — MakeWideGroups • gsm.core
…
strGroupLevel
A string specifying the group level; used to filter
dfGroups$GroupLevel.

    Value

    A long format data frame.

    Examples

MakeWideGroups(reportingGroups, "Site")
#> # A tibble: 150 × 12
#>    GroupID GroupLevel studyid   invid InvestigatorFirstName InvestigatorLastName
#>    <chr>   <chr>      <chr>     <chr> <chr>                 <chr>               
#>  1 0X216   Site       AA-AA-00… 0X216 John                  Deer                
#>  2 0X9505  Site       AA-AA-00… 0X95… Joanne                Deer                
#>  3 0X8156  Site       AA-AA-00… 0X81… John                  Deer                
#>  4 0X6215  Site       AA-AA-00… 0X62… Joanne                Smith               
#>  5 0X8779  Site       AA-AA-00… 0X87… John                  Deer                
#>  6 0X1598  Site       AA-AA-00… 0X15… Fred                  Doe                 
#>  7 0X4236  Site       AA-AA-00… 0X42… Fred                  Deer                
#>  8 0X3936  Site       AA-AA-00… 0X39… Joanne                Deer                
#>  9 0X4088  Site       AA-AA-00… 0X40… Fred                  Deer                
#> 10 0X2906  Site       AA-AA-00… 0X29… John                  Smith               
#> # ℹ 140 more rows
#> # ℹ 6 more variables: site_status <chr>, City <chr>, State <chr>,
#> #   Country <chr>, ParticipantCount <chr>, SiteCount <chr>
…
